Daniel Oliveira Zacarias - R Consortium ISC Grant
…
library(tidytext)

tidy_grants <- isc_grants |> 
  unnest_tokens(word, summary)

Palavras mais frequentes:

Código

tidy_grants |> 
  count(word, sort = TRUE) |> 
  filter(n > 10)

# A tibble: 115 × 2
   word      n
   <chr> <int>
 1 the     547
 2 and     416
 3 to      386
 4 r       265
 5 of      264
 6 a       216
 7 for     184
 8 in      168
 9 data    133
10 is      119
# ℹ 105 more rows
…
Palavras mais frequentes por projeto:

Código

tidy_grants |> 
  anti_join(get_stopwords()) |>
  count(title, word, sort = TRUE)

# A tibble: 4,855 × 3
   title                                                             word      n
   <chr>                                                             <chr> <int>
 1 Symbolic Formulae for Linear Mixed Models                         model    14
 2 deposits: Deposit Research Data Anywhere                          data     13
 3 Consolidating R-Ladies Global organisational guidance and wisdom  r        10
 4 Accounting/Auditing Gap-Analysis                                  r         9
 5 Interactive data manipulation in mapview                          data      9
 6 RcppDeepState, a simple way to fuzz test compiled code in R pack… c         9
 7 Strengthening of R in support of spatial data infrastructures ma… meta…     9
 8 sftraj: A central class for tracking and movement data            move…     9
 9 Catalyzing R-hub adoption through R package developer advocacy    r         8
10 Consolidating R-Ladies Global organisational guidance and wisdom  ladi…     8
# ℹ 4,845 more rows
…
